Lestijden professional skills.
Wij zijn groep C.

9-Mei  15:00
	Thema: feedback
		smartleerdoelen
		planning

12-Mei 15:00
	Thema: presenteren
		één indicator naar keuze uitwerken
		concept eindwerkstuk

19-Mei - 23-Mei tussenpresentaties

30-Mei  9:00 - 13:15
	Functioneringsgesprek groep C

=========== OUDE TIJDEN =============

KLOPPEN NIET MEER - ZE KUNNEN NIET ZELF TIJDEN GEVEN VAN TE VOREN...

23-Apr 13:30 - 15:30
7-Mei  12:30 - 14:30
12-Mei 10:00 - 12:00
19-Mei 10:00 - 12:00
26-Mei 10:00 - 12:00
2-Jun  10:00 - 12:00
11-Jun 10:00 - 12:00
16-Jun 10:00 - 12:00 (Gaat waarschijnlijk niet door)
